{
  "_class": "group",
  "do_objectID": "64C4B0ED-316F-4403-8A75-3AC4F2A7E3D7",
  "exportOptions": {
    "_class": "exportOptions",
    "exportFormats": [
    ],
    "includedLayerIds": [
    ],
    "layerOptions": 0,
    "shouldTrim": false
  },
  "frame": {
    "_class": "rect",
    "constrainProportions": false,
    "height": 440,
    "width": 220,
    "x": 0,
    "y": 0
  },
  "hasClickThrough": false,
  "isFlippedHorizontal": false,
  "isFlippedVertical": false,
  "isLocked": false,
  "isVisible": true,
  "layerListExpandedType": 2,
  "layers": [
    {
      "class": "symbolInstance",
      "id": "72A44E7C-249B-4CCB-82A6-7DA81E7653B6"
    },
    {
      "class": "symbolInstance",
      "id": "5A38275A-D164-49D7-B187-C02CE493DA75"
    },
    {
      "class": "symbolInstance",
      "id": "7A754EEF-7B36-47F7-A2DD-ABF78B49E567"
    },
    {
      "class": "symbolInstance",
      "id": "4F5AD9BC-333C-4AD0-8E6B-1CDA2CB72B1E"
    },
    {
      "class": "symbolInstance",
      "id": "8CE8505A-040F-4BAD-80AE-6B58037A9304"
    },
    {
      "class": "symbolInstance",
      "id": "06F703B1-C5EA-46BA-BB70-C11724ADCBEB"
    },
    {
      "class": "symbolInstance",
      "id": "6BFB7C8C-2632-4B09-B5BF-DDAB52BE601A"
    },
    {
      "class": "symbolInstance",
      "id": "A856059D-1221-4C6D-8228-96A7C0CBD71A"
    },
    {
      "class": "symbolInstance",
      "id": "F6C6328B-6C22-4111-8C3A-7C4344EDA097"
    },
    {
      "class": "group",
      "id": "05EB263B-3F46-4618-88D8-7EE6710069BE"
    },
    {
      "class": "symbolInstance",
      "id": "F3DB56FB-E1F7-42D6-9FC4-7C7A80F8C6F8"
    },
    {
      "class": "symbolInstance",
      "id": "A58C4233-4817-431B-87A6-54F90F9909F9"
    }
  ],
  "name": "top-aligned",
  "nameIsFixed": true,
  "resizingConstraint": 11,
  "resizingType": 0,
  "rotation": 0,
  "shouldBreakMaskChain": false,
  "style": {
    "_class": "style",
    "endDecorationType": 0,
    "miterLimit": 10,
    "startDecorationType": 0
  }
}