{
  "_class": "symbolInstance",
  "do_objectID": "3779DDF5-06C5-4BFA-A2B9-5BE0FE78324D",
  "exportOptions": {
    "_class": "exportOptions",
    "exportFormats": [
    ],
    "includedLayerIds": [
    ],
    "layerOptions": 0,
    "shouldTrim": false
  },
  "frame": {
    "_class": "rect",
    "constrainProportions": false,
    "height": 69,
    "width": 91,
    "x": 0,
    "y": 0
  },
  "horizontalSpacing": 0,
  "isFlippedHorizontal": false,
  "isFlippedVertical": false,
  "isLocked": false,
  "isVisible": true,
  "layerListExpandedType": 0,
  "masterInfluenceEdgeMaxXPadding": 0,
  "masterInfluenceEdgeMaxYPadding": 0,
  "masterInfluenceEdgeMinXPadding": 0,
  "masterInfluenceEdgeMinYPadding": 0,
  "name": "Month Copy 12",
  "nameIsFixed": false,
  "overrides": {
    "926FA375-4DA7-4AD1-A15C-758A53EF14EE": " ",
    "BA7AA69C-2CAB-49EE-8354-A34F628FDE25": " "
  },
  "resizingConstraint": 63,
  "resizingType": 0,
  "rotation": 0,
  "shouldBreakMaskChain": false,
  "style": {
    "_class": "style",
    "endDecorationType": 0,
    "miterLimit": 10,
    "startDecorationType": 0
  },
  "symbolID": "2F900C93-79CF-4C41-B0E9-33A4789588C9",
  "verticalSpacing": 0
}