{
  "_class": "group",
  "do_objectID": "C86E29D1-2002-4380-97C3-3FA20128E83B",
  "exportOptions": {
    "_class": "exportOptions",
    "exportFormats": [
    ],
    "includedLayerIds": [
    ],
    "layerOptions": 0,
    "shouldTrim": false
  },
  "frame": {
    "_class": "rect",
    "constrainProportions": true,
    "height": 23.99999999999999,
    "width": 25.99999999999998,
    "x": 6.999999999999996,
    "y": 7.999999999999996
  },
  "hasClickThrough": false,
  "isFlippedHorizontal": false,
  "isFlippedVertical": false,
  "isLocked": false,
  "isVisible": true,
  "layerListExpandedType": 1,
  "layers": [
    {
      "class": "shapeGroup",
      "id": "5E93E569-1D1E-41B2-B741-156234AAF46F"
    },
    {
      "class": "shapeGroup",
      "id": "37001B2C-1345-473D-9391-B9414B979E55"
    },
    {
      "class": "shapeGroup",
      "id": "4D8403F7-C3AA-417C-B6A0-65EB3FEE190C"
    },
    {
      "class": "shapeGroup",
      "id": "2F52DB67-38B8-42B7-AACA-42BFE1BAD92D"
    },
    {
      "class": "shapeGroup",
      "id": "D47E09F4-CDCD-4738-8663-059C22C2BC3E"
    },
    {
      "class": "shapeGroup",
      "id": "0E820D6C-0C67-4647-9C3C-77BAF0E1971D"
    },
    {
      "class": "shapeGroup",
      "id": "CB0A720F-505D-4924-8050-A1FBA66DE026"
    }
  ],
  "name": "gitlab-logo",
  "nameIsFixed": true,
  "resizingConstraint": 63,
  "resizingType": 0,
  "rotation": 0,
  "shouldBreakMaskChain": false,
  "style": {
    "_class": "style",
    "endDecorationType": 0,
    "miterLimit": 10,
    "startDecorationType": 0
  }
}