{
  "_class": "shapePath",
  "booleanOperation": -1,
  "do_objectID": "35768634-5239-4405-A005-AB3AE01952D5",
  "edited": true,
  "exportOptions": {
    "_class": "exportOptions",
    "exportFormats": [
    ],
    "includedLayerIds": [
    ],
    "layerOptions": 0,
    "shouldTrim": false
  },
  "frame": {
    "_class": "rect",
    "constrainProportions": false,
    "height": 15,
    "width": 15.0340666548084,
    "x": 0,
    "y": 0
  },
  "isFlippedHorizontal": false,
  "isFlippedVertical": false,
  "isLocked": false,
  "isVisible": true,
  "layerListExpandedType": 0,
  "name": "Path",
  "nameIsFixed": false,
  "path": {
    "_class": "path",
    "isClosed": true,
    "pointRadiusBehaviour": 1,
    "points": [
      {
        "_class": "curvePoint",
        "cornerRadius": 0,
        "curveFrom": "{0.8571428571428571, 0.6034082321571429}",
        "curveMode": 4,
        "curveTo": "{0.8571428571428571, 0.6428571428571429}",
        "hasCurveFrom": true,
        "hasCurveTo": false,
        "point": "{0.8571428571428571, 0.6428571428571429}"
      },
      {
        "_class": "curvePoint",
        "cornerRadius": 0,
        "curveFrom": "{0.9680203392714285, 0.5714285714285714}",
        "curveMode": 2,
        "curveTo": "{0.88912251787142849, 0.5714285714285714}",
        "hasCurveFrom": true,
        "hasCurveTo": true,
        "point": "{0.9285714285714286, 0.5714285714285714}"
      },
      {
        "_class": "curvePoint",
        "cornerRadius": 0,
        "curveFrom": "{1, 0.6428571428571429}",
        "curveMode": 4,
        "curveTo": "{1, 0.6034082321571429}",
        "hasCurveFrom": false,
        "hasCurveTo": true,
        "point": "{1, 0.6428571428571429}"
      },
      {
        "_class": "curvePoint",
        "cornerRadius": 0,
        "curveFrom": "{1, 0.90406101782088422}",
        "curveMode": 4,
        "curveTo": "{1, 0.7857142857142857}",
        "hasCurveFrom": true,
        "hasCurveTo": false,
        "point": "{1, 0.7857142857142857}"
      },
      {
        "_class": "curvePoint",
        "cornerRadius": 0,
        "curveFrom": "{0.7857142857142857, 1}",
        "curveMode": 4,
        "curveTo": "{0.90406101782088422, 1}",
        "hasCurveFrom": false,
        "hasCurveTo": true,
        "point": "{0.7857142857142857, 1}"
      },
      {
        "_class": "curvePoint",
        "cornerRadius": 0,
        "curveFrom": "{0.09593898217911577, 1}",
        "curveMode": 4,
        "curveTo": "{0.21428571428571436, 1}",
        "hasCurveFrom": true,
        "hasCurveTo": false,
        "point": "{0.21428571428571436, 1}"
      },
      {
        "_class": "curvePoint",
        "cornerRadius": 0,
        "curveFrom": "{0, 0.7857142857142857}",
        "curveMode": 4,
        "curveTo": "{1.4493294666389525e-17, 0.90406101782088422}",
        "hasCurveFrom": false,
        "hasCurveTo": true,
        "point": "{0, 0.7857142857142857}"
      },
      {
        "_class": "curvePoint",
        "cornerRadius": 0,
        "curveFrom": "{-1.4493294666389531e-17, 0.0959389821791157}",
        "curveMode": 4,
        "curveTo": "{3.1720657846433042e-17, 0.21428571428571425}",
        "hasCurveFrom": true,
        "hasCurveTo": false,
        "point": "{3.1720657846433042e-17, 0.21428571428571425}"
      },
      {
        "_class": "curvePoint",
        "cornerRadius": 0,
        "curveFrom": "{0.21428571428571436, 0}",
        "curveMode": 4,
        "curveTo": "{0.095938982179115687, -3.1720657846433042e-17}",
        "hasCurveFrom": false,
        "hasCurveTo": true,
        "point": "{0.21428571428571436, 0}"
      },
      {
        "_class": "curvePoint",
        "cornerRadius": 0,
        "curveFrom": "{0.39659176784285716, -3.1720657846433042e-17}",
        "curveMode": 4,
        "curveTo": "{0.35714285714285715, 0}",
        "hasCurveFrom": true,
        "hasCurveTo": false,
        "point": "{0.35714285714285715, 0}"
      },
      {
        "_class": "curvePoint",
        "cornerRadius": 0,
        "curveFrom": "{0.42857142857142855, 0.1108774821285714}",
        "curveMode": 2,
        "curveTo": "{0.42857142857142855, 0.031979660728571391}",
        "hasCurveFrom": true,
        "hasCurveTo": true,
        "point": "{0.42857142857142855, 0.071428571428571397}"
      },
      {
        "_class": "curvePoint",
        "cornerRadius": 0,
        "curveFrom": "{0.35714285714285715, 0.14285714285714282}",
        "curveMode": 4,
        "curveTo": "{0.39659176784285716, 0.14285714285714282}",
        "hasCurveFrom": false,
        "hasCurveTo": true,
        "point": "{0.35714285714285715, 0.14285714285714282}"
      },
      {
        "_class": "curvePoint",
        "cornerRadius": 0,
        "curveFrom": "{0.1748368035835148, 0.14285714285714282}",
        "curveMode": 4,
        "curveTo": "{0.21428571428571427, 0.14285714285714282}",
        "hasCurveFrom": true,
        "hasCurveTo": false,
        "point": "{0.21428571428571427, 0.14285714285714282}"
      },
      {
        "_class": "curvePoint",
        "cornerRadius": 0,
        "curveFrom": "{0.14285714285714288, 0.21428571428571425}",
        "curveMode": 4,
        "curveTo": "{0.14285714285714285, 0.17483680358351475}",
        "hasCurveFrom": false,
        "hasCurveTo": true,
        "point": "{0.14285714285714288, 0.21428571428571425}"
      },
      {
        "_class": "curvePoint",
        "cornerRadius": 0,
        "curveFrom": "{0.14285714285714285, 0.82516319641648495}",
        "curveMode": 4,
        "curveTo": "{0.14285714285714285, 0.78571428571428559}",
        "hasCurveFrom": true,
        "hasCurveTo": false,
        "point": "{0.14285714285714285, 0.78571428571428559}"
      },
      {
        "_class": "curvePoint",
        "cornerRadius": 0,
        "curveFrom": "{0.21428571428571433, 0.85714285714285698}",
        "curveMode": 4,
        "curveTo": "{0.17483680358351489, 0.85714285714285698}",
        "hasCurveFrom": false,
        "hasCurveTo": true,
        "point": "{0.21428571428571433, 0.85714285714285698}"
      },
      {
        "_class": "curvePoint",
        "cornerRadius": 0,
        "curveFrom": "{0.82516319641648495, 0.85714285714285698}",
        "curveMode": 4,
        "curveTo": "{0.7857142857142857, 0.85714285714285698}",
        "hasCurveFrom": true,
        "hasCurveTo": false,
        "point": "{0.7857142857142857, 0.85714285714285698}"
      },
      {
        "_class": "curvePoint",
        "cornerRadius": 0,
        "curveFrom": "{0.8571428571428571, 0.78571428571428559}",
        "curveMode": 4,
        "curveTo": "{0.8571428571428571, 0.82516319641648483}",
        "hasCurveFrom": false,
        "hasCurveTo": true,
        "point": "{0.8571428571428571, 0.78571428571428559}"
      }
    ]
  },
  "resizingConstraint": 63,
  "resizingType": 0,
  "rotation": 0,
  "shouldBreakMaskChain": false
}