{
  "_class": "shapeGroup",
  "clippingMaskMode": 0,
  "do_objectID": "E94E5A34-578F-4F2C-B6D7-F5D0950C8E57",
  "exportOptions": {
    "_class": "exportOptions",
    "exportFormats": [
    ],
    "includedLayerIds": [
    ],
    "layerOptions": 0,
    "shouldTrim": false
  },
  "frame": {
    "_class": "rect",
    "constrainProportions": false,
    "height": 32,
    "width": 32,
    "x": 0,
    "y": 0
  },
  "hasClickThrough": false,
  "hasClippingMask": false,
  "isFlippedHorizontal": false,
  "isFlippedVertical": false,
  "isLocked": false,
  "isVisible": true,
  "layerListExpandedType": 0,
  "layers": [
    {
      "class": "rectangle",
      "id": "71F49EF0-E2CD-4CEF-95CF-F349FC89238C"
    }
  ],
  "name": "label-fill/red",
  "nameIsFixed": true,
  "resizingConstraint": 63,
  "resizingType": 0,
  "rotation": 0,
  "shouldBreakMaskChain": false,
  "style": {
    "sharedObjectID": "FA3F4F14-CDF2-4936-9CEF-F19A70731766"
  },
  "windingRule": 1
}