{
  "_class": "shapePath",
  "booleanOperation": -1,
  "do_objectID": "568DA1C5-40A1-4C7F-BAFC-901B949C8763",
  "edited": true,
  "exportOptions": {
    "_class": "exportOptions",
    "exportFormats": [
    ],
    "includedLayerIds": [
    ],
    "layerOptions": 0,
    "shouldTrim": false
  },
  "frame": {
    "_class": "rect",
    "constrainProportions": false,
    "height": 2,
    "width": 8,
    "x": 4,
    "y": 14.00000000000001
  },
  "isFlippedHorizontal": false,
  "isFlippedVertical": false,
  "isLocked": false,
  "isVisible": true,
  "layerListExpandedType": 0,
  "name": "Path",
  "nameIsFixed": false,
  "path": {
    "_class": "path",
    "isClosed": true,
    "pointRadiusBehaviour": 1,
    "points": [
      {
        "_class": "curvePoint",
        "cornerRadius": 0,
        "curveFrom": "{0.125, 0}",
        "curveMode": 4,
        "curveTo": "{0.055964406271150846, 0}",
        "hasCurveFrom": false,
        "hasCurveTo": true,
        "point": "{0.125, 0}"
      },
      {
        "_class": "curvePoint",
        "cornerRadius": 0,
        "curveFrom": "{0.94403559372884915, 0}",
        "curveMode": 4,
        "curveTo": "{0.875, 0}",
        "hasCurveFrom": true,
        "hasCurveTo": false,
        "point": "{0.875, 0}"
      },
      {
        "_class": "curvePoint",
        "cornerRadius": 0,
        "curveFrom": "{1, 0.77614237491539662}",
        "curveMode": 2,
        "curveTo": "{1, 0.22385762508460338}",
        "hasCurveFrom": true,
        "hasCurveTo": true,
        "point": "{1, 0.5}"
      },
      {
        "_class": "curvePoint",
        "cornerRadius": 0,
        "curveFrom": "{0.875, 1}",
        "curveMode": 4,
        "curveTo": "{0.94403559372884915, 1}",
        "hasCurveFrom": false,
        "hasCurveTo": true,
        "point": "{0.875, 1}"
      },
      {
        "_class": "curvePoint",
        "cornerRadius": 0,
        "curveFrom": "{0.055964406271150846, 1}",
        "curveMode": 4,
        "curveTo": "{0.125, 1}",
        "hasCurveFrom": true,
        "hasCurveTo": false,
        "point": "{0.125, 1}"
      },
      {
        "_class": "curvePoint",
        "cornerRadius": 0,
        "curveFrom": "{0, 0.22385762508460338}",
        "curveMode": 2,
        "curveTo": "{0, 0.77614237491539662}",
        "hasCurveFrom": true,
        "hasCurveTo": true,
        "point": "{0, 0.5}"
      }
    ]
  },
  "resizingConstraint": 63,
  "resizingType": 0,
  "rotation": 0,
  "shouldBreakMaskChain": false
}