{
  "_class": "group",
  "do_objectID": "4A6FAA65-393F-4EAF-9E28-21C7632A286E",
  "exportOptions": {
    "_class": "exportOptions",
    "exportFormats": [
    ],
    "includedLayerIds": [
    ],
    "layerOptions": 0,
    "shouldTrim": false
  },
  "frame": {
    "_class": "rect",
    "constrainProportions": false,
    "height": 28,
    "width": 527,
    "x": 607,
    "y": 542
  },
  "hasClickThrough": false,
  "isFlippedHorizontal": false,
  "isFlippedVertical": false,
  "isLocked": false,
  "isVisible": true,
  "layerListExpandedType": 2,
  "layers": [
    {
      "class": "shapeGroup",
      "id": "6B96D4B4-E1F5-4FEA-A56C-BF036A9221F1"
    },
    {
      "class": "shapeGroup",
      "id": "7ED117D0-18E2-4404-A303-EF1D0EBB7491"
    },
    {
      "class": "shapeGroup",
      "id": "758621DA-C7FB-4EEF-808C-AF34A85AD9D6"
    },
    {
      "class": "text",
      "id": "2DA737EE-2ECF-4A2B-9C46-3B83D003BE19"
    }
  ],
  "name": "new_epic copy 7",
  "nameIsFixed": true,
  "resizingConstraint": 63,
  "resizingType": 0,
  "rotation": 0,
  "shouldBreakMaskChain": false,
  "style": {
    "_class": "style",
    "endDecorationType": 0,
    "miterLimit": 10,
    "startDecorationType": 0
  }
}